<?xml version="1.0" encoding="UTF-8"?>
<svg width="64px" height="64px" viewBox="0 0 64 64" version="1.1" xmlns="http://www.w3.org/2000/svg" xmlns:xlink="http://www.w3.org/1999/xlink">
    <title>feather-1</title>
    <g id="Page-2" stroke="none" stroke-width="1" fill="none" fill-rule="evenodd">
        <g id="Desktop-HD" transform="translate(-348.000000, -650.000000)">
            <g id="feather-1" transform="translate(348.000000, 650.000000)">
                <rect id="Rectangle" x="0" y="0" width="64" height="64"></rect>
                <path d="M41.9560692,18.3818537 C40.9121032,23.9188935 39.0876804,29.2778012 36.537971,34.2965269 C31.6408435,45.6955818 27.1604933,54.8944515 24.2743138,53.9305608 C21.3881344,52.9666701 24.0346672,43.0658366 26.014357,30.7867076 C26.7541356,26.1663186 30.1821249,6.7837344 38.5176603,10.4611869 C41.5392925,11.7917751 42.2790711,14.8510803 41.9143913,18.4028078" id="Fill_1" fill="#83C25C" fill-rule="nonzero"></path>
            </g>
        </g>
    </g>
</svg>