<?xml version="1.0" encoding="UTF-8"?>
<svg width="64px" height="64px" viewBox="0 0 64 64" version="1.1" xmlns="http://www.w3.org/2000/svg" xmlns:xlink="http://www.w3.org/1999/xlink">
    <title>feather-2</title>
    <g id="Page-2" stroke="none" stroke-width="1" fill="none" fill-rule="evenodd">
        <g id="Desktop-HD" transform="translate(-348.000000, -714.000000)">
            <g id="feather-2" transform="translate(348.000000, 714.000000)">
                <rect id="Rectangle-Copy" x="0" y="0" width="64" height="64"></rect>
                <path d="M49.4042334,21.2001471 C48.8258564,22.3475255 48.1614044,23.4491632 47.4166138,24.4955471 C44.0788156,29.147295 40.4244183,33.5620164 36.4795569,37.7081384 C25.8102629,49.0302651 16.6651534,57.9763981 13.6785744,55.6210651 C10.6919959,53.2657322 18.0863529,42.7700381 25.6557845,29.1648913 C28.7451394,23.2197301 32.7293718,17.787616 37.4682176,13.0597859 C40.2694221,10.4565232 45.9130261,6.86154138 49.2806507,10.6321402 C51.5269925,13.7764796 51.5763539,17.9934366 49.4042334,21.1898167" id="Fill_2" fill="#E9A629" fill-rule="nonzero"></path>
            </g>
        </g>
    </g>
</svg>